…
``` r
html_covid_rates <- read_html("https://www.statista.com/statistics/1104709/coronavirus-deaths-worldwide-per-million-inhabitants/")
tab_covid_rates_raw <- (html_covid_rates |> html_nodes("table"))[[1]] |> html_table()
df_covid_rates <- tab_covid_rates_raw |>
  mutate(Total_cases= as.numeric(gsub(",", "", `Confirmed cases (absolute)`)),
         Total_deaths=as.numeric(gsub(",", "", `Confirmed deaths (absolute)`)), 
         Pop_millions= as.numeric(gsub(",", "", `Population (in millions)`)), 
         Country=Characteristic) |>
  select(Country, Total_cases, Total_deaths, Pop_millions)

df_covid_rates
```

    ## # A tibble: 154 x 4
    ##    Country                Total_cases Total_deaths Pop_millions
    ##    <chr>                        <dbl>        <dbl>        <dbl>
    ##  1 Peru                       3691213       213714        33.0 
    ##  2 Bulgaria                   1180636        37279         6.93
    ##  3 Bosnia and Herzegovina      379982        15810         3.28
    ##  4 Hungary                    1932788        46661         9.75
    ##  5 Georgia                    1662299        16844         3.71
    ##  6 North Macedonia             316729         9337         2.07
    ##  7 Moldova                     521182        11570         2.62
    ##  8 Croatia                    1160253        16124         4.05
    ##  9 Czechia                    3943792        40334        10.7 
    ## 10 Slovakia                   2559088        20163         5.46
    ## # ... with 144 more rows
…
    ## Joining, by = "Country"
    ## Joining, by = "Country"
    ## Joining, by = "Country"
    ## Joining, by = "Country"
    ## Joining, by = "Country"
    ## Joining, by = "Country"

``` r
analysis_df
```

    ## # A tibble: 154 x 11
    ##    Country                Total_cases Total_deaths Pop_millions Continent     fully_vax_count Percent_Over_65   km2 GDP_per_capita Obesity_rate cvd_death_rate
    ##    <chr>                        <dbl>        <dbl>        <dbl> <chr>                   <dbl>           <dbl> <dbl>          <dbl>        <dbl>          <dbl>
    ##  1 Peru                       3691213       213714        33.0  South America        28382375            8.05    26           6692         19.7           88.6
    ##  2 Bulgaria                   1180636        37279         6.93 Europe                2074555           20.1     62          11635         25            541. 
    ##  3 Bosnia and Herzegovina      379982        15810         3.28 Europe                 846080           16.2     64           6916         17.9          344. 
    ##  4 Hungary                    1932788        46661         9.75 Europe                6206878           20.7    104          18773         26.4          302. 
    ##  5 Georgia                    1662299        16844         3.71 Asia                  1276173           16.8     53           5042         21.7          454  
    ##  6 North Macedonia             316729         9337         2.07 Europe                 838032           14.2     82           6721         22.4          569. 
    ##  7 Moldova                     521182        11570         2.62 Europe                1073162           14.0     90           5315         18.9          405. 
    ##  8 Croatia                    1160253        16124         4.05 Europe                2250353           21.1     72          17399         24.4          266. 
    ##  9 Czech Republic             3943792        40334        10.7  Europe                6891525           20.2    133          26379         26            232. 
    ## 10 Slovakia                   2559088        20163         5.46 Europe                2577827           17.0    111          21088         20.5          299. 
    ## # ... with 144 more rows
…
